Flight_Capstone
…
attach(FTrain)

# Separate source and destination 

separate(FTrain, Route, into=c("Source","Destination"), sep = "[^[:alnum:]]+", remove = TRUE,
  convert = FALSE, extra = "warn", fill = "warn")

## Warning: Expected 2 pieces. Additional pieces discarded in 7191 rows [2, 3,
## 4, 5, 7, 8, 9, 10, 11, 14, 16, 17, 18, 19, 20, 21, 22, 25, 26, 27, ...].

## # A tibble: 10,683 x 13
##    Airline Date_of_Journey Dep_Time Arrival_Time Source Destination
##    <fct>   <date>          <chr>    <chr>        <chr>  <chr>      
##  1 IndiGo  2019-03-24      22:20    01:10 22 Mar BLR    DEL        
##  2 Air In~ 2019-05-01      05:50    13:15        CCU    IXR        
##  3 Jet Ai~ 2019-06-09      09:25    04:25 10 Jun DEL    LKO        
##  4 IndiGo  2019-05-12      18:05    23:30        CCU    NAG        
##  5 IndiGo  2019-03-01      16:50    21:35        BLR    NAG        
##  6 SpiceJ~ 2019-06-24      09:00    11:25        CCU    BLR        
##  7 Jet Ai~ 2019-03-12      18:55    10:25 13 Mar BLR    BOM        
##  8 Jet Ai~ 2019-03-01      08:00    05:05 02 Mar BLR    BOM        
##  9 Jet Ai~ 2019-03-12      08:55    10:25 13 Mar BLR    BOM        
## 10 Multip~ 2019-05-27      11:25    19:15        DEL    BOM        
## # ... with 10,673 more rows, and 7 more variables: Duration <chr>,
## #   Total_Stops <chr>, Additional_Info <chr>, Price <dbl>, Date <fct>,
## #   Month <fct>, Year <fct>
…
